%YAML 1.1
%TAG !u! tag:unity3d.com,2011:
--- !u!114 &11400000
MonoBehaviour:
  m_ObjectHideFlags: 0
  m_PrefabParentObject: {fileID: 0}
  m_PrefabInternal: {fileID: 0}
  m_GameObject: {fileID: 0}
  m_Enabled: 1
  m_EditorHideFlags: 0
  m_Script: {fileID: 11500000, guid: 7fb348b92be0d544c94139d9cd5c3b93, type: 3}
  m_Name: CTS_Profile_170702-1800
  m_EditorClassIdentifier: 
  m_showGlobalSettings: 1
  m_showSnowSettings: 0
  m_showTextureSettings: 1
  m_showGeoSettings: 0
  m_showDetailSettings: 0
  m_ctsDirectory: Assets/CTS/
  m_shaderType: 1
  m_globalUvMixPower: 3
  m_globalUvMixStartDistance: 400
  m_globalNormalPower: 0.1
  m_globalDetailNormalClosePower: 1
  m_globalDetailNormalCloseTiling: 60
  m_globalDetailNormalFarPower: 1
  m_globalDetailNormalFarTiling: 300
  m_globalTerrainSmoothness: 0.5
  m_globalTerrainSpecular: 1
  m_globalTesselationPower: 10
  m_globalTesselationMinDistance: 0
  m_globalTesselationMaxDistance: 50
  m_globalTesselationPhongStrength: 1
  m_globalAOType: 1
  m_globalAOPower: 1
  m_globalBasemapDistance: 500
  m_geoMapCloseOffset: 0
  m_geoMapClosePower: 0
  m_geoMapTilingClose: 100
  m_geoMapFarOffset: 0
  m_geoMapFarPower: 0
  m_geoMapTilingFar: 100
  m_snowAmount: 0
  m_snowMaxAngle: 40
  m_snowMaxAngleHardness: 1
  m_snowMinHeight: -1000
  m_snowMinHeightBlending: 57
  m_snowNoisePower: 0.8
  m_snowNoiseTiling: 0.02
  m_snowNormalScale: 1
  m_snowDetailPower: 0
  m_snowTilingClose: 6.9
  m_snowTilingFar: 3
  m_snowBrightness: 0.8
  m_snowBlendNormal: 0.9
  m_snowSmoothness: 1
  m_snowTint: {r: 1, g: 1, b: 1, a: 1}
  m_snowSpecular: 1
  m_snowHeightmapBlendClose: 1
  m_snowHeightmapBlendFar: 1
  m_snowHeightmapDepth: 8
  m_snowHeightmapContrast: 1
  m_snowHeightmapMinValue: 0
  m_snowHeightmapMaxValue: 1
  m_snowTesselationDepth: 0
  m_snowAOStrength: 1
  m_albedoFormat: 4
  m_albedoAniso: 8
  m_albedoFilterMode: 1
  m_albedoTextureSize: 4
  m_albedoTextureSizePx: 1024
  m_normalFormat: 4
  m_normalAniso: 8
  m_normalFilterMode: 1
  m_normalTextureSize: 4
  m_normalTextureSizePx: 1024
  m_aoFormat: 4
  m_aoAniso: 8
  m_aoFilterMode: 1
  m_aoTextureSize: 4
  m_aoTextureSizePx: 1024
  m_globalDetailNormalMapIdx: 4
  m_globalDetailNormalMap: {fileID: 2800000, guid: 34f66994040def1499e148b92d4f3b07,
    type: 3}
  m_snowAlbedoTextureIdx: -1
  m_snowAlbedoTexture: {fileID: 0}
  m_snowNormalTextureIdx: -1
  m_snowNormalTexture: {fileID: 0}
  m_snowNoiseTextureIdx: -1
  m_snowNoiseTexture: {fileID: 0}
  m_snowHeightTextureIdx: -1
  m_snowHeightTexture: {fileID: 0}
  m_snowAOTextureIdx: -1
  m_snowAOTexture: {fileID: 0}
  m_snowEmissionTextureIdx: -1
  m_snowEmissionTexture: {fileID: 0}
  m_geoAlbedoTexture: {fileID: 0}
  m_terrainTextures:
  - m_isOpenInEditor: 1
    m_textureIdx: 0
    m_name: Ground_Terrain_1A
    m_detailPower: 1
    m_snowReductionPower: 0
    m_geologicalPower: 1
    m_triplanar: 0
    m_tint: {r: 1, g: 1, b: 1, a: 1}
    m_tintBrightness: 1
    m_smoothness: 1
    m_substanceRegenOnBake: 0
    m_substance: {fileID: 0}
    m_albedoIdx: 0
    m_albedoTilingClose: 8
    m_albedoTilingFar: 3
    m_albedoTexture: {fileID: 2800000, guid: 50ee4847409170f4f91e5773918840b5, type: 3}
    m_normalIdx: 0
    m_normalStrength: 1
    m_normalTexture: {fileID: 2800000, guid: b33caa4ef30dfbe4d941a88fb595007a, type: 3}
    m_heightIdx: -1
    m_heightDepth: 8
    m_heightContrast: 1
    m_heightBlendClose: 1
    m_heightBlendFar: 1
    m_heightTesselationDepth: 1
    m_heightMin: 0
    m_heightMax: 1
    m_heightTexture: {fileID: 0}
    m_aoIdx: -1
    m_aoPower: 1
    m_aoTexture: {fileID: 0}
    m_emissionIdx: -1
    m_emissionStrength: 1
    m_emissionTexture: {fileID: 0}
  - m_isOpenInEditor: 1
    m_textureIdx: 1
    m_name: Terrain_Cliff_2A
    m_detailPower: 1
    m_snowReductionPower: 0
    m_geologicalPower: 1
    m_triplanar: 0
    m_tint: {r: 1, g: 1, b: 1, a: 1}
    m_tintBrightness: 1
    m_smoothness: 1
    m_substanceRegenOnBake: 0
    m_substance: {fileID: 0}
    m_albedoIdx: 1
    m_albedoTilingClose: 6
    m_albedoTilingFar: 3
    m_albedoTexture: {fileID: 2800000, guid: c745abb3e238c254185dc69636a39cd3, type: 3}
    m_normalIdx: 1
    m_normalStrength: 1
    m_normalTexture: {fileID: 2800000, guid: c4ed9fa3a6d14ad45994ab516a6e3d93, type: 3}
    m_heightIdx: -1
    m_heightDepth: 8
    m_heightContrast: 1
    m_heightBlendClose: 1
    m_heightBlendFar: 1
    m_heightTesselationDepth: 1
    m_heightMin: 0
    m_heightMax: 1
    m_heightTexture: {fileID: 0}
    m_aoIdx: -1
    m_aoPower: 1
    m_aoTexture: {fileID: 0}
    m_emissionIdx: -1
    m_emissionStrength: 1
    m_emissionTexture: {fileID: 0}
  - m_isOpenInEditor: 0
    m_textureIdx: 2
    m_name: Ground_1A
    m_detailPower: 1
    m_snowReductionPower: 0
    m_geologicalPower: 1
    m_triplanar: 0
    m_tint: {r: 1, g: 1, b: 1, a: 1}
    m_tintBrightness: 1
    m_smoothness: 1
    m_substanceRegenOnBake: 0
    m_substance: {fileID: 0}
    m_albedoIdx: 2
    m_albedoTilingClose: 5
    m_albedoTilingFar: 3
    m_albedoTexture: {fileID: 2800000, guid: a52096b772f376d42b04a1554fbe5128, type: 3}
    m_normalIdx: 2
    m_normalStrength: 1
    m_normalTexture: {fileID: 2800000, guid: a014ece3f46a81849adb2ce27fe644e6, type: 3}
    m_heightIdx: -1
    m_heightDepth: 8
    m_heightContrast: 1
    m_heightBlendClose: 1
    m_heightBlendFar: 1
    m_heightTesselationDepth: 1
    m_heightMin: 0
    m_heightMax: 1
    m_heightTexture: {fileID: 0}
    m_aoIdx: -1
    m_aoPower: 1
    m_aoTexture: {fileID: 0}
    m_emissionIdx: -1
    m_emissionStrength: 1
    m_emissionTexture: {fileID: 0}
  - m_isOpenInEditor: 0
    m_textureIdx: 3
    m_name: Groundplants_1A
    m_detailPower: 1
    m_snowReductionPower: 0
    m_geologicalPower: 1
    m_triplanar: 0
    m_tint: {r: 1, g: 1, b: 1, a: 1}
    m_tintBrightness: 1
    m_smoothness: 1
    m_substanceRegenOnBake: 0
    m_substance: {fileID: 0}
    m_albedoIdx: 3
    m_albedoTilingClose: 5
    m_albedoTilingFar: 3
    m_albedoTexture: {fileID: 2800000, guid: 4b0c0b73fc9abb843923707f9fde5974, type: 3}
    m_normalIdx: 3
    m_normalStrength: 1
    m_normalTexture: {fileID: 2800000, guid: b901ab94cd3cb2949a87a7b2df651d9c, type: 3}
    m_heightIdx: -1
    m_heightDepth: 8
    m_heightContrast: 1
    m_heightBlendClose: 1
    m_heightBlendFar: 1
    m_heightTesselationDepth: 1
    m_heightMin: 0
    m_heightMax: 1
    m_heightTexture: {fileID: 0}
    m_aoIdx: -1
    m_aoPower: 1
    m_aoTexture: {fileID: 0}
    m_emissionIdx: -1
    m_emissionStrength: 1
    m_emissionTexture: {fileID: 0}
  m_replacementTerrainAlbedos:
  - {fileID: 2800000, guid: f5ca1b9935dfde446b7a42a4a588fbb2, type: 3}
  - {fileID: 2800000, guid: b5e52c3bc33d38442802608b8bf9108b, type: 3}
  - {fileID: 2800000, guid: 319960ecb0ea9e243b4ec0a2c1739aaf, type: 3}
  - {fileID: 2800000, guid: 435acf47baa61b5408060287fd69dfdc, type: 3}
  m_replacementTerrainNormals:
  - {fileID: 2800000, guid: 2b30d98c273bbca4d87688940f8a241d, type: 3}
  - {fileID: 2800000, guid: d90edb60a1e027e4d8b0c4b7ebb2553d, type: 3}
  - {fileID: 2800000, guid: 4f0ba84a91fcc6342aa7f7672415f356, type: 3}
  - {fileID: 2800000, guid: 9048f49facee04649899e1db4114933e, type: 3}
  m_needsAlbedosArrayUpdate: 0
  m_needsNormalsArrayUpdate: 0
  m_needsAOArrayUpdate: 0
