%YAML 1.1
%TAG !u! tag:unity3d.com,2011:
--- !u!21 &2100000
Material:
  serializedVersion: 6
  m_ObjectHideFlags: 2
  m_PrefabParentObject: {fileID: 0}
  m_PrefabInternal: {fileID: 0}
  m_Name: Terrain_2_0-20170621-103527_14148_Advanced_Tess
  m_Shader: {fileID: 4800000, guid: ec70eb520ed2337499a160c3789b9b9b, type: 3}
  m_ShaderKeywords: _USE_AO_ON
  m_LightmapFlags: 5
  m_EnableInstancingVariants: 0
  m_CustomRenderQueue: -1
  stringTagMap: {}
  disabledShaderPasses: []
  m_SavedProperties:
    serializedVersion: 3
    m_TexEnvs:
    - _DummyTex:
        m_Texture: {fileID: 0}
        m_Scale: {x: 1, y: 1}
        m_Offset: {x: 0, y: 0}
    - _Global_Normal_Map:
        m_Texture: {fileID: 2800000, guid: 1ae37c256241d454fa1bb123ba5c635d, type: 3}
        m_Scale: {x: 1, y: 1}
        m_Offset: {x: 0, y: 0}
    - _Texture_Array_Albedo:
        m_Texture: {fileID: 18700000, guid: 9c52c462d95d8b64fb941a414425ae28, type: 2}
        m_Scale: {x: 1, y: 1}
        m_Offset: {x: 0, y: 0}
    - _Texture_Array_Emission_AO:
        m_Texture: {fileID: 0}
        m_Scale: {x: 1, y: 1}
        m_Offset: {x: 0, y: 0}
    - _Texture_Array_Normal:
        m_Texture: {fileID: 18700000, guid: 5cc2ae0cf95fa0d4484a1970ca463e11, type: 2}
        m_Scale: {x: 1, y: 1}
        m_Offset: {x: 0, y: 0}
    - _Texture_Geological_Map:
        m_Texture: {fileID: 2800000, guid: a8b026679658e0a458404f9f86468a66, type: 3}
        m_Scale: {x: 1, y: 1}
        m_Offset: {x: 0, y: 0}
    - _Texture_Splat_1:
        m_Texture: {fileID: 28676403809877172, guid: 5b4b22911beb3e24c9a0b7e5f4b90591,
          type: 2}
        m_Scale: {x: 1, y: 1}
        m_Offset: {x: 0, y: 0}
    - _Texture_Splat_2:
        m_Texture: {fileID: 28016690490110114, guid: 5b4b22911beb3e24c9a0b7e5f4b90591,
          type: 2}
        m_Scale: {x: 1, y: 1}
        m_Offset: {x: 0, y: 0}
    - _Texture_Splat_3:
        m_Texture: {fileID: 0}
        m_Scale: {x: 1, y: 1}
        m_Offset: {x: 0, y: 0}
    - _Texture_Splat_4:
        m_Texture: {fileID: 0}
        m_Scale: {x: 1, y: 1}
        m_Offset: {x: 0, y: 0}
    m_Floats:
    - _Ambient_Occlusion_Power: 0
    - _Geological_Map_Close_Power: 0.58
    - _Geological_Map_Far_Power: 0.91
    - _Geological_Map_Offset_Close: 0
    - _Geological_Map_Offset_Far: 0.289
    - _Geological_Tiling_Close: 48
    - _Geological_Tiling_Far: 606
    - _Global_Normalmap_Power: 0.163
    - _Perlin_Normal_Power: 2.47
    - _Perlin_Normal_Power_Close: 0.66
    - _Perlin_Normal_Tiling_Close: 50
    - _Perlin_Normal_Tiling_Far: 300
    - _Snow_Ambient_Occlusion_Power: 1
    - _Snow_Amount: 1.99
    - _Snow_Blend_Normal: 0.83
    - _Snow_Emission_AO_index: -1
    - _Snow_Height_Contrast: 1.82
    - _Snow_Heightblend_Close: 4.09
    - _Snow_Heightblend_Far: 4.04
    - _Snow_Heightmap_Depth: 4.6
    - _Snow_Maximum_Angle: 49
    - _Snow_Maximum_Angle_Hardness: 2.52
    - _Snow_Min_Height: 853
    - _Snow_Min_Height_Blending: 494
    - _Snow_Noise_Power: 0.651
    - _Snow_Noise_Tiling: 0.002
    - _Snow_Normal_Scale: 1
    - _Snow_Perlin_Power: 0.345
    - _Snow_Specular: 1
    - _Snow_Tesselation_Depth: 0
    - _Snow_Tiling: 15
    - _Snow_Tiling_Far_Multiplier: 3
    - _Terrain_Smoothness: 1
    - _Terrain_Specular: 1
    - _TessMax: 50
    - _TessMin: 0
    - _TessPhongStrength: 1
    - _TessValue: 10.53
    - _Tess_Distance: 50
    - _Texture_10_AO_Power: 1
    - _Texture_10_Albedo_Index: -1
    - _Texture_10_Emission_AO_Index: -1
    - _Texture_10_Far_Multiplier: 3
    - _Texture_10_Geological_Power: 1
    - _Texture_10_Height_Contrast: 1
    - _Texture_10_Heightblend_Close: 5
    - _Texture_10_Heightblend_Far: 5
    - _Texture_10_Heightmap_Depth: 1
    - _Texture_10_Heightmap_MaxHeight: 0
    - _Texture_10_Normal_Index: -1
    - _Texture_10_Normal_Power: 1
    - _Texture_10_Perlin_Power: 0
    - _Texture_10_Snow_Reduction: 0
    - _Texture_10_Tesselation_Depth: 1
    - _Texture_10_Tiling: 15
    - _Texture_10_Triplanar: 0
    - _Texture_11_AO_Power: 1
    - _Texture_11_Albedo_Index: -1
    - _Texture_11_Emission_AO_Index: -1
    - _Texture_11_Far_Multiplier: 3
    - _Texture_11_Geological_Power: 1
    - _Texture_11_Height_Contrast: 1
    - _Texture_11_Heightblend_Close: 5
    - _Texture_11_Heightblend_Far: 5
    - _Texture_11_Heightmap_Depth: 1
    - _Texture_11_Heightmap_MaxHeight: 0
    - _Texture_11_Normal_Index: -1
    - _Texture_11_Normal_Power: 1
    - _Texture_11_Perlin_Power: 0
    - _Texture_11_Snow_Reduction: 0
    - _Texture_11_Tesselation_Depth: 0
    - _Texture_11_Tiling: 15
    - _Texture_11_Triplanar: 0
    - _Texture_12_AO_Power: 1
    - _Texture_12_Albedo_Index: -1
    - _Texture_12_Emission_AO_Index: -1
    - _Texture_12_Far_Multiplier: 3
    - _Texture_12_Geological_Power: 1
    - _Texture_12_Height_Contrast: 1
    - _Texture_12_Heightblend_Close: 5
    - _Texture_12_Heightblend_Far: 5
    - _Texture_12_Heightmap_Depth: 1
    - _Texture_12_Heightmap_MaxHeight: 0
    - _Texture_12_Normal_Index: -1
    - _Texture_12_Normal_Power: 1
    - _Texture_12_Perlin_Power: 0
    - _Texture_12_Snow_Reduction: 0
    - _Texture_12_Tesselation_Depth: 1
    - _Texture_12_Tiling: 15
    - _Texture_12_Triplanar: 0
    - _Texture_13_AO_Power: 1
    - _Texture_13_Albedo_Index: -1
    - _Texture_13_Emission_AO_Index: -1
    - _Texture_13_Far_Multiplier: 3
    - _Texture_13_Geological_Power: 1
    - _Texture_13_Height_Contrast: 1
    - _Texture_13_Heightblend_Close: 5
    - _Texture_13_Heightblend_Far: 5
    - _Texture_13_Heightmap_Depth: 1
    - _Texture_13_Heightmap_MaxHeight: 0
    - _Texture_13_Normal_Index: -1
    - _Texture_13_Normal_Power: 1
    - _Texture_13_Perlin_Power: 0
    - _Texture_13_Snow_Reduction: 0
    - _Texture_13_Tesselation_Depth: 1
    - _Texture_13_Tiling: 15
    - _Texture_13_Triplanar: 0
    - _Texture_14_AO_Power: 1
    - _Texture_14_Albedo_Index: -1
    - _Texture_14_Emission_AO_Index: -1
    - _Texture_14_Far_Multiplier: 3
    - _Texture_14_Geological_Power: 1
    - _Texture_14_Height_Contrast: 1
    - _Texture_14_Heightblend_Close: 5
    - _Texture_14_Heightblend_Far: 5
    - _Texture_14_Heightmap_Depth: 1
    - _Texture_14_Heightmap_MaxHeight: 0
    - _Texture_14_Normal_Index: -1
    - _Texture_14_Normal_Power: 1
    - _Texture_14_Perlin_Power: 0
    - _Texture_14_Snow_Reduction: 0
    - _Texture_14_Tesselation_Depth: 1
    - _Texture_14_Tiling: 15
    - _Texture_14_Triplanar: 0
    - _Texture_15_AO_Power: 1
    - _Texture_15_Albedo_Index: -1
    - _Texture_15_Emission_AO_Index: -1
    - _Texture_15_Far_Multiplier: 3
    - _Texture_15_Geological_Power: 1
    - _Texture_15_Height_Contrast: 1
    - _Texture_15_Heightblend_Close: 5
    - _Texture_15_Heightblend_Far: 5
    - _Texture_15_Heightmap_Depth: 1
    - _Texture_15_Heightmap_MaxHeight: 0
    - _Texture_15_Normal_Index: -1
    - _Texture_15_Normal_Power: 1
    - _Texture_15_Perlin_Power: 0
    - _Texture_15_Snow_Reduction: 0
    - _Texture_15_Tesselation_Depth: 1
    - _Texture_15_Tiling: 15
    - _Texture_15_Triplanar: 0
    - _Texture_16_AO_Power: 1
    - _Texture_16_Albedo_Index: -1
    - _Texture_16_Emission_AO_Index: -1
    - _Texture_16_Far_Multiplier: 3
    - _Texture_16_Geological_Power: 1
    - _Texture_16_Height_Contrast: 1
    - _Texture_16_Heightblend_Close: 5
    - _Texture_16_Heightblend_Far: 5
    - _Texture_16_Heightmap_Depth: 1
    - _Texture_16_Heightmap_MaxHeight: 0
    - _Texture_16_Normal_Index: -1
    - _Texture_16_Normal_Power: 1
    - _Texture_16_Perlin_Power: 0
    - _Texture_16_Snow_Reduction: 0
    - _Texture_16_Tesselation_Depth: 1
    - _Texture_16_Tiling: 15
    - _Texture_16_Triplanar: 0
    - _Texture_1_AO_Power: 1
    - _Texture_1_Albedo_Index: 0
    - _Texture_1_Emission_AO_Index: 0
    - _Texture_1_Far_Multiplier: 3
    - _Texture_1_Geological_Power: 0
    - _Texture_1_Height_Contrast: 1
    - _Texture_1_Heightblend_Close: 1
    - _Texture_1_Heightblend_Far: 1
    - _Texture_1_Heightmap_Depth: 8
    - _Texture_1_Heightmap_MaxHeight: 0.19215687
    - _Texture_1_Normal_Index: 0
    - _Texture_1_Normal_Power: 1.47
    - _Texture_1_Perlin_Power: 0.1
    - _Texture_1_Snow_Reduction: 0.887
    - _Texture_1_Tesselation_Depth: 3.13
    - _Texture_1_Tiling: 13
    - _Texture_1_Triplanar: 0
    - _Texture_2_AO_Power: 1
    - _Texture_2_Albedo_Index: 1
    - _Texture_2_Emission_AO_Index: 1
    - _Texture_2_Far_Multiplier: 3
    - _Texture_2_Geological_Power: 0
    - _Texture_2_Height_Contrast: 1
    - _Texture_2_Heightblend_Close: 10
    - _Texture_2_Heightblend_Far: 1
    - _Texture_2_Heightmap_Depth: 2.71
    - _Texture_2_Heightmap_MaxHeight: 0.54901963
    - _Texture_2_Normal_Index: 1
    - _Texture_2_Normal_Power: 1.2
    - _Texture_2_Perlin_Power: 0.069
    - _Texture_2_Snow_Reduction: 0.625
    - _Texture_2_Tesselation_Depth: 2.86
    - _Texture_2_Tiling: 15
    - _Texture_2_Triplanar: 0
    - _Texture_3_AO_Power: 1
    - _Texture_3_Albedo_Index: 2
    - _Texture_3_Emission_AO_Index: 2
    - _Texture_3_Far_Multiplier: 3
    - _Texture_3_Geological_Power: 0.059
    - _Texture_3_Height_Contrast: 1
    - _Texture_3_Heightblend_Close: 6.94
    - _Texture_3_Heightblend_Far: 1
    - _Texture_3_Heightmap_Depth: 10
    - _Texture_3_Heightmap_MaxHeight: 0.050980393
    - _Texture_3_Normal_Index: 2
    - _Texture_3_Normal_Power: 1.31
    - _Texture_3_Perlin_Power: 0.002
    - _Texture_3_Snow_Reduction: 0
    - _Texture_3_Tesselation_Depth: 6.3
    - _Texture_3_Tiling: 20
    - _Texture_3_Triplanar: 0
    - _Texture_4_AO_Power: 1
    - _Texture_4_Albedo_Index: 3
    - _Texture_4_Emission_AO_Index: 3
    - _Texture_4_Far_Multiplier: 3
    - _Texture_4_Geological_Power: 0.076
    - _Texture_4_Height_Contrast: 1
    - _Texture_4_Heightblend_Close: 2.87
    - _Texture_4_Heightblend_Far: 1
    - _Texture_4_Heightmap_Depth: 10
    - _Texture_4_Heightmap_MaxHeight: 0.050980393
    - _Texture_4_Normal_Index: 3
    - _Texture_4_Normal_Power: 1.25
    - _Texture_4_Perlin_Power: 0.426
    - _Texture_4_Snow_Reduction: 0
    - _Texture_4_Tesselation_Depth: 6.3
    - _Texture_4_Tiling: 20
    - _Texture_4_Triplanar: 0
    - _Texture_5_AO_Power: 1
    - _Texture_5_Albedo_Index: 4
    - _Texture_5_Emission_AO_Index: 4
    - _Texture_5_Far_Multiplier: 3
    - _Texture_5_Geological_Power: 0.155
    - _Texture_5_Height_Contrast: 1
    - _Texture_5_Heightblend_Close: 4.96
    - _Texture_5_Heightblend_Far: 3
    - _Texture_5_Heightmap_Depth: 10
    - _Texture_5_Heightmap_MaxHeight: 0.043137256
    - _Texture_5_Normal_Index: 4
    - _Texture_5_Normal_Power: 1
    - _Texture_5_Perlin_Power: 1
    - _Texture_5_Snow_Reduction: 0
    - _Texture_5_Tesselation_Depth: 5.06
    - _Texture_5_Tiling: 15
    - _Texture_5_Triplanar: 0
    - _Texture_6_AO_Power: 1
    - _Texture_6_Albedo_Index: 5
    - _Texture_6_Emission_AO_Index: 5
    - _Texture_6_Far_Multiplier: 2
    - _Texture_6_Geological_Power: 0.572
    - _Texture_6_Height_Contrast: 1
    - _Texture_6_Heightblend_Close: 4.96
    - _Texture_6_Heightblend_Far: 1
    - _Texture_6_Heightmap_Depth: 9.34
    - _Texture_6_Heightmap_MaxHeight: 0.9764706
    - _Texture_6_Normal_Index: 5
    - _Texture_6_Normal_Power: 1
    - _Texture_6_Perlin_Power: 0.657
    - _Texture_6_Snow_Reduction: 0
    - _Texture_6_Tesselation_Depth: 6.93
    - _Texture_6_Tiling: 40
    - _Texture_6_Triplanar: 1
    - _Texture_7_AO_Power: 1
    - _Texture_7_Albedo_Index: -1
    - _Texture_7_Emission_AO_Index: -1
    - _Texture_7_Far_Multiplier: 3
    - _Texture_7_Geological_Power: 1
    - _Texture_7_Height_Contrast: 1
    - _Texture_7_Heightblend_Close: 5
    - _Texture_7_Heightblend_Far: 5
    - _Texture_7_Heightmap_Depth: 1
    - _Texture_7_Heightmap_MaxHeight: 0
    - _Texture_7_Normal_Index: -1
    - _Texture_7_Normal_Power: 1
    - _Texture_7_Perlin_Power: 0
    - _Texture_7_Snow_Reduction: 0
    - _Texture_7_Tesselation_Depth: 1
    - _Texture_7_Tiling: 15
    - _Texture_7_Triplanar: 0
    - _Texture_8_AO_Power: 1
    - _Texture_8_Albedo_Index: -1
    - _Texture_8_Emission_AO_Index: -1
    - _Texture_8_Far_Multiplier: 3
    - _Texture_8_Geological_Power: 1
    - _Texture_8_Height_Contrast: 1
    - _Texture_8_Heightblend_Close: 5
    - _Texture_8_Heightblend_Far: 5
    - _Texture_8_Heightmap_Depth: 1
    - _Texture_8_Heightmap_MaxHeight: 0
    - _Texture_8_Normal_Index: -1
    - _Texture_8_Normal_Power: 1
    - _Texture_8_Perlin_Power: 0
    - _Texture_8_Snow_Reduction: 0
    - _Texture_8_Tesselation_Depth: 1
    - _Texture_8_Tiling: 15
    - _Texture_8_Triplanar: 0
    - _Texture_9_AO_Power: 1
    - _Texture_9_Albedo_Index: -1
    - _Texture_9_Emission_AO_Index: -1
    - _Texture_9_Far_Multiplier: 3
    - _Texture_9_Geological_Power: 1
    - _Texture_9_Height_Contrast: 1
    - _Texture_9_Heightblend_Close: 5
    - _Texture_9_Heightblend_Far: 5
    - _Texture_9_Heightmap_Depth: 1
    - _Texture_9_Heightmap_MaxHeight: 0
    - _Texture_9_Normal_Index: -1
    - _Texture_9_Normal_Power: 1
    - _Texture_9_Perlin_Power: 0
    - _Texture_9_Snow_Reduction: 0
    - _Texture_9_Tesselation_Depth: 1
    - _Texture_9_Tiling: 15
    - _Texture_9_Triplanar: 0
    - _Texture_Perlin_Normal_Index: 7
    - _Texture_Snow_Index: 6
    - _Texture_Snow_Noise_Index: 7
    - _Texture_Snow_Normal_Index: 6
    - _UV_Mix_Power: 3.44
    - _UV_Mix_Start_Distance: 600
    - _Use_AO: 0
    - _Use_AO_Texture: 0
    - __dirty: 1
    m_Colors:
    - _Snow_Color: {r: 1, g: 1, b: 1, a: 1}
    - _Texture_10_Color: {r: 1, g: 1, b: 1, a: 1}
    - _Texture_11_Color: {r: 1, g: 1, b: 1, a: 1}
    - _Texture_12_Color: {r: 1, g: 1, b: 1, a: 1}
    - _Texture_13_Color: {r: 1, g: 1, b: 1, a: 1}
    - _Texture_14_Color: {r: 1, g: 1, b: 1, a: 1}
    - _Texture_15_Color: {r: 1, g: 1, b: 1, a: 1}
    - _Texture_16_Color: {r: 1, g: 1, b: 1, a: 1}
    - _Texture_1_Color: {r: 1, g: 1, b: 1, a: 1}
    - _Texture_2_Color: {r: 1, g: 1, b: 1, a: 1}
    - _Texture_3_Color: {r: 0.92525357, g: 1, b: 0.9191176, a: 1}
    - _Texture_4_Color: {r: 1.0365441, g: 0.9335205, b: 0.6630834, a: 1.4}
    - _Texture_5_Color: {r: 1, g: 1, b: 1, a: 1}
    - _Texture_6_Color: {r: 0.76, g: 0.76, b: 0.76, a: 1}
    - _Texture_7_Color: {r: 1, g: 1, b: 1, a: 1}
    - _Texture_8_Color: {r: 1, g: 1, b: 1, a: 1}
    - _Texture_9_Color: {r: 1, g: 1, b: 1, a: 1}
