%YAML 1.1
%TAG !u! tag:unity3d.com,2011:
--- !u!21 &2100000
Material:
  serializedVersion: 6
  m_ObjectHideFlags: 0
  m_PrefabParentObject: {fileID: 0}
  m_PrefabInternal: {fileID: 0}
  m_Name: LiquidVolumeBump
  m_Shader: {fileID: 4800000, guid: 31bd228d89716488e843fce26c52118f, type: 3}
  m_ShaderKeywords: 
  m_LightmapFlags: 5
  m_EnableInstancingVariants: 0
  m_CustomRenderQueue: -1
  stringTagMap: {}
  disabledShaderPasses: []
  m_SavedProperties:
    serializedVersion: 3
    m_TexEnvs:
    - _MainTex:
        m_Texture: {fileID: 0}
        m_Scale: {x: 1, y: 1}
        m_Offset: {x: 0, y: 0}
    - _NoiseTex:
        m_Texture: {fileID: 11700000, guid: 41974beaaddc547889b39d0022cb1d07, type: 2}
        m_Scale: {x: 1, y: 1}
        m_Offset: {x: 0, y: 0}
    - _NoiseTex2D:
        m_Texture: {fileID: 2800000, guid: 2e25f51e1f31e4da8bdac5d08b0f578f, type: 3}
        m_Scale: {x: 1, y: 1}
        m_Offset: {x: 0, y: 0}
    m_Floats:
    - _Alpha: 1
    - _AlphaCombined: 1
    - _BasePos: -1
    - _DeepAtten: 2
    - _FlaskBlurIntensity: 1
    - _FlaskThickness: 0.05
    - _FoamDensity: 1
    - _FoamMaxPos: 0
    - _FoamRaySteps: 15
    - _FoamWeight: 10
    - _Glossiness: 0.767
    - _GlossinessInt: 0.5
    - _Level: 1
    - _LevelPos: 0
    - _LiquidRaySteps: 10
    - _Metallic: 0
    - _Muddy: 1
    - _Radius: 0.5
    - _SmokeAtten: 2
    - _SmokeRaySteps: 10
    - _SmokeSpeed: 5
    - _Sparkling: 1
    - _SparklingIntensity: 1
    - _SparklingThreshold: 0.85
    - _Topology: 0
    - _Turbulence: 1
    - _Turbulence2: 1
    m_Colors:
    - _Bounds: {r: 1, g: 1, b: 1, a: 1}
    - _Center: {r: 1, g: 1, b: 1, a: 1}
    - _Color: {r: 1, g: 1, b: 1, a: 1}
    - _Color1: {r: 1, g: 0, b: 0, a: 0.1}
    - _Color2: {r: 1, g: 0, b: 0, a: 0.3}
    - _FlaskColor: {r: 0, g: 0, b: 0, a: 1}
    - _FlaskThickness: {r: 0.05, g: 0.05, b: 0.05, a: 1}
    - _FoamColor: {r: 1, g: 1, b: 1, a: 0.9}
    - _Scale: {r: 0.25, g: 0.2, b: 1, a: 5}
    - _Size: {r: 1, g: 1, b: 1, a: 1}
    - _SmokeColor: {r: 0.7, g: 0.7, b: 0.7, a: 0.1}
    - _ViewDir: {r: 0, g: 0, b: 1, a: 1}
